LAB 6/Zadanie 4/1 try/shift_word_every_1s/simulation/qsim/shift_word_every_1s.msim.vcd
$comment
	File created using the following command:
		vcd file shift_word_every_1s.msim.vcd -direction
$end
$date
	Mon Apr 08 22:08:18 2024
$end
$version
	ModelSim Version 10.5b
$end
$timescale
	1ps
$end

$scope module shift_word_every_1s_vlg_vec_tst $end
$var reg 1 ! clk $end
$var reg 1 " direction $end
$var wire 1 # char_out [7] $end
$var wire 1 $ char_out [6] $end
$var wire 1 % char_out [5] $end
$var wire 1 & char_out [4] $end
$var wire 1 ' char_out [3] $end
$var wire 1 ( char_out [2] $end
$var wire 1 ) char_out [1] $end
$var wire 1 * char_out [0] $end

$scope module i1 $end
$var wire 1 + gnd $end
$var wire 1 , vcc $end
$var wire 1 - unknown $end
$var tri1 1 . devclrn $end
$var tri1 1 / devpor $end
$var tri1 1 0 devoe $end
$var wire 1 1 ~QUARTUS_CREATED_GND~I_combout $end
$var wire 1 2 clk~input_o $end
$var wire 1 3 clk~inputCLKENA0_outclk $end
$var wire 1 4 fast_counter|Q[0]~1_combout $end
$var wire 1 5 fast_counter|Q~0_combout $end
$var wire 1 6 WideNor0~combout $end
$var wire 1 7 shift|char_out[2]~6_combout $end
$var wire 1 8 shift|char_out[2]~DUPLICATE_q $end
$var wire 1 9 shift|char_out[0]~4_combout $end
$var wire 1 : direction~input_o $end
$var wire 1 ; shift|char_out~1_combout $end
$var wire 1 < shift|char_out~2_combout $end
$var wire 1 = shift|char_out~3_combout $end
$var wire 1 > shift|char_out~0_combout $end
$var wire 1 ? shift|char_out [7] $end
$var wire 1 @ shift|char_out [6] $end
$var wire 1 A shift|char_out [5] $end
$var wire 1 B shift|char_out [4] $end
$var wire 1 C shift|char_out [3] $end
$var wire 1 D shift|char_out [2] $end
$var wire 1 E shift|char_out [1] $end
$var wire 1 F shift|char_out [0] $end
$var wire 1 G fast_counter|Q [1] $end
$var wire 1 H fast_counter|Q [0] $end
$upscope $end
$upscope $end
$enddefinitions $end
#0
$dumpvars
0!
0"
1*
1)
0(
1'
1&
0%
0$
0#
0+
1,
x-
1.
1/
10
01
02
03
14
05
06
17
08
19
0:
0;
1<
0=
1>
0F
0E
0D
0C
zB
0A
z@
0?
0H
0G
$end
#2000
1!
12
13
1H
16
15
04
1E
1F
18
1D
1A
1%
1(
1$
0&
0*
0)
09
07
1=
1;
#4000
0!
02
03
#6000
1!
12
13
1G
0H
05
#8000
0!
02
03
#10000
1!
12
13
0G
06
14
#12000
0!
02
03
#14000
1!
12
13
1H
16
15
04
1C
0F
08
0D
1?
1#
0(
0$
1&
1*
0'
19
17
0>
0<
#16000
0!
02
03
#18000
1!
12
13
1G
0H
05
#20000
0!
02
03
#22000
1!
12
13
0G
06
14
#24000
0!
02
03
#26000
1!
12
13
1H
16
15
04
0E
1F
18
1D
0A
0%
1(
1$
0&
0*
1)
09
07
0=
0;
#28000
0!
02
03
#30000
1!
12
13
1G
0H
05
#32000
0!
02
03
#34000
1!
12
13
0G
06
14
#36000
0!
02
03
#38000
1!
12
13
1H
16
15
04
0C
0F
08
0D
0?
0#
0(
0$
1&
1*
1'
19
17
1>
1<
#40000
0!
02
03
#42000
1!
12
13
1G
0H
05
#44000
0!
02
03
#46000
1!
12
13
0G
06
14
#48000
0!
02
03
#50000
1"
1!
1:
12
13
0>
1=
0<
1;
1H
16
15
04
1C
1F
18
1D
1?
1#
1(
1$
0&
0*
0'
09
07
1>
1<
#52000
0!
02
03
#54000
1!
12
13
1G
0H
05
#56000
0!
02
03
#58000
1!
12
13
0G
06
14
#60000
0!
02
03
#62000
1!
12
13
1H
16
15
04
1E
0F
08
0D
1A
1%
0(
0$
1&
1*
0)
19
17
0=
0;
#64000
0!
02
03
#66000
1!
12
13
1G
0H
05
#68000
0!
02
03
#70000
1!
12
13
0G
06
14
#72000
0!
02
03
#74000
1!
12
13
1H
16
15
04
0C
1F
18
1D
0?
0#
1(
1$
0&
0*
1'
09
07
0>
0<
#76000
0!
02
03
#78000
1!
12
13
1G
0H
05
#80000
0!
02
03
#82000
1!
12
13
0G
06
14
#84000
0!
02
03
#86000
1!
12
13
1H
16
15
04
0E
0F
08
0D
0A
0%
0(
0$
1&
1*
1)
19
17
1=
1;
#88000
0!
02
03
#90000
1!
12
13
1G
0H
05
#92000
0!
02
03
#94000
1!
12
13
0G
06
14
#96000
0!
02
03
#98000
1!
12
13
1H
16
15
04
1C
1F
18
1D
1?
1#
1(
1$
0&
0*
0'
09
07
1>
1<
