LAB 8/Zadanie 3/array_multiplier_4_bits_decoders/simulation/qsim/array_multiplier_4_bits_decoders.msim.vcd
$comment
	File created using the following command:
		vcd file array_multiplier_4_bits_decoders.msim.vcd -direction
$end
$date
	Tue Apr 23 01:34:19 2024
$end
$version
	ModelSim Version 10.5b
$end
$timescale
	1ps
$end

$scope module array_multiplier_4_bits_decoders_vlg_vec_tst $end
$var reg 4 ! A [3:0] $end
$var reg 4 " B [3:0] $end
$var wire 1 # H0 [0] $end
$var wire 1 $ H0 [1] $end
$var wire 1 % H0 [2] $end
$var wire 1 & H0 [3] $end
$var wire 1 ' H0 [4] $end
$var wire 1 ( H0 [5] $end
$var wire 1 ) H0 [6] $end
$var wire 1 * H2 [0] $end
$var wire 1 + H2 [1] $end
$var wire 1 , H2 [2] $end
$var wire 1 - H2 [3] $end
$var wire 1 . H2 [4] $end
$var wire 1 / H2 [5] $end
$var wire 1 0 H2 [6] $end
$var wire 1 1 H4 [0] $end
$var wire 1 2 H4 [1] $end
$var wire 1 3 H4 [2] $end
$var wire 1 4 H4 [3] $end
$var wire 1 5 H4 [4] $end
$var wire 1 6 H4 [5] $end
$var wire 1 7 H4 [6] $end
$var wire 1 8 H5 [0] $end
$var wire 1 9 H5 [1] $end
$var wire 1 : H5 [2] $end
$var wire 1 ; H5 [3] $end
$var wire 1 < H5 [4] $end
$var wire 1 = H5 [5] $end
$var wire 1 > H5 [6] $end

$scope module i1 $end
$var wire 1 ? gnd $end
$var wire 1 @ vcc $end
$var wire 1 A unknown $end
$var tri1 1 B devclrn $end
$var tri1 1 C devpor $end
$var tri1 1 D devoe $end
$var wire 1 E ~QUARTUS_CREATED_GND~I_combout $end
$var wire 1 F B[3]~input_o $end
$var wire 1 G B[1]~input_o $end
$var wire 1 H B[2]~input_o $end
$var wire 1 I B[0]~input_o $end
$var wire 1 J dec_B|WideOr6~0_combout $end
$var wire 1 K dec_B|WideOr5~0_combout $end
$var wire 1 L dec_B|WideOr4~0_combout $end
$var wire 1 M dec_B|WideOr3~0_combout $end
$var wire 1 N dec_B|WideOr2~0_combout $end
$var wire 1 O dec_B|WideOr1~0_combout $end
$var wire 1 P dec_B|WideOr0~0_combout $end
$var wire 1 Q A[1]~input_o $end
$var wire 1 R A[0]~input_o $end
$var wire 1 S A[2]~input_o $end
$var wire 1 T A[3]~input_o $end
$var wire 1 U dec_A|WideOr6~0_combout $end
$var wire 1 V dec_A|WideOr5~0_combout $end
$var wire 1 W dec_A|WideOr4~0_combout $end
$var wire 1 X dec_A|WideOr3~0_combout $end
$var wire 1 Y dec_A|WideOr2~0_combout $end
$var wire 1 Z dec_A|WideOr1~0_combout $end
$var wire 1 [ dec_A|WideOr0~0_combout $end
$var wire 1 \ multiplier|FA0|s~0_combout $end
$var wire 1 ] multiplier|FA2|s~combout $end
$var wire 1 ^ multiplier|FA1|s~combout $end
$var wire 1 _ multiplier|FA8|s~0_combout $end
$var wire 1 ` multiplier|FA4|s~0_combout $end
$var wire 1 a dec_P0|WideOr6~0_combout $end
$var wire 1 b dec_P0|WideOr5~0_combout $end
$var wire 1 c dec_P0|WideOr4~0_combout $end
$var wire 1 d dec_P0|WideOr3~0_combout $end
$var wire 1 e dec_P0|WideOr2~0_combout $end
$var wire 1 f dec_P0|WideOr1~0_combout $end
$var wire 1 g dec_P0|WideOr0~0_combout $end
$var wire 1 h multiplier|FA8|cout~0_combout $end
$var wire 1 i multiplier|FA4|cout~0_combout $end
$var wire 1 j multiplier|FA3|s~combout $end
$var wire 1 k multiplier|FA6|s~combout $end
$var wire 1 l multiplier|AB[1][3]~combout $end
$var wire 1 m multiplier|FA9|s~combout $end
$var wire 1 n multiplier|FA7|cout~0_combout $end
$var wire 1 o multiplier|FA7|s~0_combout $end
$var wire 1 p multiplier|FA6|cout~combout $end
$var wire 1 q multiplier|AB[2][3]~combout $end
$var wire 1 r multiplier|FA10|s~combout $end
$var wire 1 s multiplier|FA7|cout~combout $end
$var wire 1 t multiplier|FA7|s~combout $end
$var wire 1 u multiplier|FA9|cout~combout $end
$var wire 1 v multiplier|FA11|cout~combout $end
$var wire 1 w multiplier|FA11|s~combout $end
$var wire 1 x dec_P1|WideOr6~0_combout $end
$var wire 1 y dec_P1|WideOr5~0_combout $end
$var wire 1 z dec_P1|WideOr4~0_combout $end
$var wire 1 { dec_P1|WideOr3~0_combout $end
$var wire 1 | dec_P1|WideOr2~0_combout $end
$var wire 1 } dec_P1|WideOr1~0_combout $end
$var wire 1 ~ dec_P1|WideOr0~0_combout $end
$var wire 1 !! multiplier|P [7] $end
$var wire 1 "! multiplier|P [6] $end
$var wire 1 #! multiplier|P [5] $end
$var wire 1 $! multiplier|P [4] $end
$var wire 1 %! multiplier|P [3] $end
$var wire 1 &! multiplier|P [2] $end
$var wire 1 '! multiplier|P [1] $end
$var wire 1 (! multiplier|P [0] $end
$upscope $end
$upscope $end
$enddefinitions $end
#0
$dumpvars
b0 !
b0 "
1)
0(
0'
0&
0%
0$
0#
10
0/
0.
0-
0,
0+
0*
17
06
05
04
03
02
01
1>
0=
0<
0;
0:
09
08
0?
1@
xA
1B
1C
1D
0E
0F
0G
0H
0I
0J
0K
0L
0M
0N
0O
0P
0Q
0R
0S
0T
0U
0V
0W
0X
0Y
0Z
0[
0\
0]
0^
0_
0`
0a
0b
0c
0d
0e
0f
0g
0h
0i
0j
0k
0l
0m
0n
0o
0p
0q
0r
0s
0t
0u
0v
0w
0x
0y
0z
0{
0|
0}
0~
0(!
z'!
z&!
z%!
z$!
z#!
z"!
z!!
$end
#5000
b1 !
b1 "
1I
1R
1(!
1[
1X
1W
1V
1P
1M
1L
1K
1(
1'
1&
1#
1/
1.
1-
1*
1g
1d
1c
1b
16
15
14
11
#10000
b11 !
b11 "
b10 !
b10 "
0I
1G
0R
1Q
1^
1U
0(!
1J
0[
1Y
0X
0W
0P
1N
0M
0L
0'
0&
1%
0#
0.
0-
1,
0*
0)
00
1`
0g
0d
0c
0b
06
05
04
01
1a
1g
1d
1c
15
14
11
07
#15000
b11 !
b11 "
1I
1R
0^
1]
1(!
0Y
1W
0N
1L
1'
0%
1.
0,
1_
0`
0g
1f
0d
04
12
01
0f
02
#20000
b111 !
b111 "
b101 !
b101 "
b100 !
b100 "
0I
0G
1H
0R
0Q
1S
1k
0]
0(!
1[
1X
0V
1P
1M
0K
0(
1&
1#
0/
1-
1*
0_
1m
0c
05
0a
1~
1{
1z
1y
1=
1<
1;
18
17
#25000
b101 !
b101 "
1I
1R
1i
1`
1^
1(!
0[
1Z
0X
0P
1O
0M
0&
1$
0#
0-
1+
0*
1a
0`
1_
1f
1c
15
12
07
0f
02
#30000
b111 !
b111 "
b110 !
b110 "
0I
1G
0R
1Q
1p
0k
0i
1]
1`
0(!
0W
0L
0'
0.
0a
0_
1r
0m
1t
1g
1f
1e
1d
1b
16
14
13
12
11
17
1x
1a
0~
1|
0{
0z
0f
0e
0b
06
03
02
0<
0;
1:
08
07
0>
#35000
b111 !
b111 "
1I
1R
1j
1i
0`
1_
0]
1(!
0U
0J
0Z
1X
1W
1V
0O
1M
1L
1K
1(
1'
1&
0$
1/
1.
1-
0+
1)
10
1k
0_
0g
0d
04
01
0a
1m
1g
1d
1b
16
14
11
17
0|
1z
1<
0:
