LAB 14/Zadanie 3/control_unit/simulation/qsim/control_unit.msim.vcd
$comment
	File created using the following command:
		vcd file control_unit.msim.vcd -direction
$end
$date
	Sun Jun 16 23:16:42 2024
$end
$version
	ModelSim Version 10.5b
$end
$timescale
	1ps
$end

$scope module control_unit_vlg_vec_tst $end
$var reg 1 ! clk $end
$var reg 1 " filter_on $end
$var reg 1 # noise_on $end
$var reg 1 $ read_ready $end
$var reg 1 % reset $end
$var reg 1 & write_ready $end
$var wire 1 ' filter_ena $end
$var wire 1 ( noise_ena $end
$var wire 1 ) read_ena $end
$var wire 1 * write_ena $end

$scope module i1 $end
$var wire 1 + gnd $end
$var wire 1 , vcc $end
$var wire 1 - unknown $end
$var tri1 1 . devclrn $end
$var tri1 1 / devpor $end
$var tri1 1 0 devoe $end
$var wire 1 1 ~QUARTUS_CREATED_GND~I_combout $end
$var wire 1 2 clk~input_o $end
$var wire 1 3 clk~inputCLKENA0_outclk $end
$var wire 1 4 reset~input_o $end
$var wire 1 5 read_ready~input_o $end
$var wire 1 6 write_ready~input_o $end
$var wire 1 7 filter_on~input_o $end
$var wire 1 8 noise_on~input_o $end
$var wire 1 9 state~13_combout $end
$var wire 1 : state.NOISEADD~q $end
$var wire 1 ; state~14_combout $end
$var wire 1 < state.FILTERPROC~q $end
$var wire 1 = state~16_combout $end
$var wire 1 > state~17_combout $end
$var wire 1 ? state.WAITFORWRITE~q $end
$var wire 1 @ state~12_combout $end
$var wire 1 A state.WRITEDATA~q $end
$var wire 1 B state~15_combout $end
$var wire 1 C state.START~q $end
$var wire 1 D state~11_combout $end
$var wire 1 E state.READDATA~q $end
$upscope $end
$upscope $end
$enddefinitions $end
#0
$dumpvars
0!
0"
0#
0$
1%
0&
0'
0(
0)
0*
0+
1,
x-
1.
1/
10
01
02
03
14
05
06
07
08
09
0:
0;
0<
0=
0>
0?
0@
0A
0B
0C
0D
0E
$end
#5000
1!
12
13
#10000
1$
0!
15
02
03
#15000
1!
12
13
#20000
0$
0!
05
02
03
#25000
1!
12
13
#30000
0!
02
03
#35000
1!
12
13
#40000
0!
02
03
#45000
1!
12
13
#50000
0!
02
03
#55000
1!
12
13
#60000
1&
0!
16
02
03
#65000
1!
12
13
#70000
0&
0!
06
02
03
#75000
1!
12
13
#80000
0%
0!
04
02
03
#85000
1!
12
13
#90000
0!
02
03
#95000
1!
12
13
#100000
0!
02
03
#105000
1!
12
13
#110000
1$
0!
15
02
03
1D
1B
#115000
1!
12
13
1C
1E
1)
1=
0D
1>
#120000
0$
0!
05
02
03
#125000
1!
12
13
1?
0E
0)
0=
#130000
0!
02
03
#135000
1!
12
13
#140000
0!
02
03
#145000
1!
12
13
#150000
0!
02
03
#155000
1!
12
13
#160000
1&
0!
16
02
03
1@
0>
#165000
1!
12
13
0?
1A
1*
0@
0B
#170000
0&
0!
06
02
03
#175000
1!
12
13
0C
0A
0*
#180000
0!
02
03
#185000
1!
12
13
#190000
0!
02
03
#195000
1!
12
13
#200000
0!
02
03
#205000
1!
12
13
#210000
1$
0!
15
02
03
1D
1B
#215000
1!
12
13
1C
1E
1)
1=
0D
1>
#220000
0$
0!
05
02
03
#225000
1!
12
13
1?
0E
0)
0=
#230000
0!
02
03
#235000
1!
12
13
#240000
0!
02
03
#245000
1!
12
13
#250000
1"
0!
17
02
03
#255000
1!
12
13
#260000
1&
0!
16
02
03
1@
0>
#265000
1!
12
13
0?
1A
1*
0@
0B
#270000
0&
0!
06
02
03
#275000
1!
12
13
0C
0A
0*
#280000
0!
02
03
#285000
1!
12
13
#290000
0!
02
03
#295000
1!
12
13
#300000
0!
02
03
#305000
1!
12
13
#310000
1$
0!
15
02
03
1D
1B
#315000
1!
12
13
1C
1E
1)
0D
1;
#320000
0$
0!
05
02
03
#325000
1!
12
13
0E
1<
1'
0)
1>
0;
#330000
0!
02
03
#335000
1!
12
13
1?
0<
0'
#340000
0!
02
03
#345000
1!
12
13
#350000
0!
02
03
#355000
1!
12
13
#360000
1&
0!
16
02
03
1@
0>
#365000
1!
12
13
0?
1A
1*
0@
0B
#370000
0&
0!
06
02
03
#375000
1!
12
13
0C
0A
0*
#380000
0!
02
03
#385000
1!
12
13
#390000
0!
02
03
#395000
1!
12
13
#400000
0!
02
03
#405000
1!
12
13
#410000
1$
0!
15
02
03
1D
1B
#415000
1!
12
13
1C
1E
1)
0D
1;
#420000
0$
0!
05
02
03
#425000
1!
12
13
0E
1<
1'
0)
1>
0;
#430000
0!
02
03
#435000
1!
12
13
1?
0<
0'
#440000
0!
02
03
#445000
1!
12
13
#450000
0!
02
03
#455000
1!
12
13
#460000
1&
0!
16
02
03
1@
0>
#465000
1!
12
13
0?
1A
1*
0@
0B
#470000
0&
0!
06
02
03
#475000
1!
12
13
0C
0A
0*
#480000
0!
02
03
#485000
1!
12
13
#490000
0!
02
03
#495000
1!
12
13
#500000
1#
0"
0!
18
07
02
03
#505000
1!
12
13
#510000
1$
0!
15
02
03
1D
1B
#515000
1!
12
13
1C
1E
1)
0D
19
#520000
0$
0!
05
02
03
#525000
1!
12
13
0E
1:
1(
0)
1=
09
1>
#530000
0!
02
03
#535000
1!
12
13
1?
0:
0(
0=
#540000
0!
02
03
#545000
1!
12
13
#550000
0!
02
03
#555000
1!
12
13
#560000
1&
0!
16
02
03
1@
0>
#565000
1!
12
13
0?
1A
1*
0@
0B
#570000
0&
0!
06
02
03
#575000
1!
12
13
0C
0A
0*
#580000
0!
02
03
#585000
1!
12
13
#590000
0!
02
03
#595000
1!
12
13
#600000
0!
02
03
#605000
1!
12
13
#610000
1$
0!
15
02
03
1D
1B
#615000
1!
12
13
1C
1E
1)
0D
19
#620000
0$
0!
05
02
03
#625000
1!
12
13
0E
1:
1(
0)
1=
09
1>
#630000
0!
02
03
#635000
1!
12
13
1?
0:
0(
0=
#640000
0!
02
03
#645000
1!
12
13
#650000
0!
02
03
#655000
1!
12
13
#660000
1&
0!
16
02
03
1@
0>
#665000
1!
12
13
0?
1A
1*
0@
0B
#670000
0&
0!
06
02
03
#675000
1!
12
13
0C
0A
0*
#680000
0!
02
03
#685000
1!
12
13
#690000
0!
02
03
#695000
1!
12
13
#700000
0!
02
03
#705000
1!
12
13
#710000
1$
0!
15
02
03
1D
1B
#715000
1!
12
13
1C
1E
1)
0D
19
#720000
0$
0!
05
02
03
#725000
1!
12
13
0E
1:
1(
0)
1=
09
1>
#730000
0!
02
03
#735000
1!
12
13
1?
0:
0(
0=
#740000
0!
02
03
#745000
1!
12
13
#750000
1"
0!
17
02
03
#755000
1!
12
13
#760000
1&
0!
16
02
03
1@
0>
#765000
1!
12
13
0?
1A
1*
0@
0B
#770000
0&
0!
06
02
03
#775000
1!
12
13
0C
0A
0*
#780000
0!
02
03
#785000
1!
12
13
#790000
0!
02
03
#795000
1!
12
13
#800000
0!
02
03
#805000
1!
12
13
#810000
1$
0!
15
02
03
1D
1B
#815000
1!
12
13
1C
1E
1)
0D
19
#820000
0$
0!
05
02
03
#825000
1!
12
13
0E
1:
1(
0)
1;
09
#830000
0!
02
03
#835000
1!
12
13
1<
0:
0(
1'
0;
1>
#840000
0!
02
03
#845000
1!
12
13
1?
0<
0'
#850000
0!
02
03
#855000
1!
12
13
#860000
1&
0!
16
02
03
1@
0>
#865000
1!
12
13
0?
1A
1*
0@
0B
#870000
0&
0!
06
02
03
#875000
1!
12
13
0C
0A
0*
#880000
0!
02
03
#885000
1!
12
13
#890000
0!
02
03
#895000
1!
12
13
#900000
0!
02
03
#905000
1!
12
13
#910000
1$
0!
15
02
03
1D
1B
#915000
1!
12
13
1C
1E
1)
0D
19
#920000
0$
0!
05
02
03
#925000
1!
12
13
0E
1:
1(
0)
1;
09
#930000
0!
02
03
#935000
1!
12
13
1<
0:
0(
1'
0;
1>
#940000
0!
02
03
#945000
1!
12
13
1?
0<
0'
#950000
0!
02
03
#955000
1!
12
13
#960000
1&
0!
16
02
03
1@
0>
#965000
1!
12
13
0?
1A
1*
0@
0B
#970000
0&
0!
06
02
03
#975000
1!
12
13
0C
0A
0*
#980000
0!
02
03
#985000
1!
12
13
#990000
0!
02
03
#995000
1!
12
13
