LAB 6/Zadanie 4/1 try/shift_word_every_1s_decoder_on_board/simulation/qsim/shift_word_every_1s_decoder_on_board.msim.vcd
$comment
	File created using the following command:
		vcd file shift_word_every_1s_decoder_on_board.msim.vcd -direction
$end
$date
	Tue Apr 09 18:25:07 2024
$end
$version
	ModelSim Version 10.5b
$end
$timescale
	1ps
$end

$scope module shift_word_every_1s_decoder_on_board_vlg_vec_tst $end
$var reg 1 ! CLOCK_50 $end
$var reg 1 " SW [0:0] $end
$var wire 1 # HEX0 [0] $end
$var wire 1 $ HEX0 [1] $end
$var wire 1 % HEX0 [2] $end
$var wire 1 & HEX0 [3] $end
$var wire 1 ' HEX0 [4] $end
$var wire 1 ( HEX0 [5] $end
$var wire 1 ) HEX0 [6] $end
$var wire 1 * HEX1 [0] $end
$var wire 1 + HEX1 [1] $end
$var wire 1 , HEX1 [2] $end
$var wire 1 - HEX1 [3] $end
$var wire 1 . HEX1 [4] $end
$var wire 1 / HEX1 [5] $end
$var wire 1 0 HEX1 [6] $end
$var wire 1 1 HEX2 [0] $end
$var wire 1 2 HEX2 [1] $end
$var wire 1 3 HEX2 [2] $end
$var wire 1 4 HEX2 [3] $end
$var wire 1 5 HEX2 [4] $end
$var wire 1 6 HEX2 [5] $end
$var wire 1 7 HEX2 [6] $end
$var wire 1 8 HEX3 [0] $end
$var wire 1 9 HEX3 [1] $end
$var wire 1 : HEX3 [2] $end
$var wire 1 ; HEX3 [3] $end
$var wire 1 < HEX3 [4] $end
$var wire 1 = HEX3 [5] $end
$var wire 1 > HEX3 [6] $end

$scope module i1 $end
$var wire 1 ? gnd $end
$var wire 1 @ vcc $end
$var wire 1 A unknown $end
$var tri1 1 B devclrn $end
$var tri1 1 C devpor $end
$var tri1 1 D devoe $end
$var wire 1 E ~QUARTUS_CREATED_GND~I_combout $end
$var wire 1 F CLOCK_50~input_o $end
$var wire 1 G CLOCK_50~inputCLKENA0_outclk $end
$var wire 1 H shift_1s_dec|shift_1s|fast_counter|Q~0_combout $end
$var wire 1 I shift_1s_dec|shift_1s|fast_counter|Q~1_combout $end
$var wire 1 J shift_1s_dec|shift_1s|fast_counter|Q[1]~2_combout $end
$var wire 1 K shift_1s_dec|shift_1s|WideNor0~combout $end
$var wire 1 L shift_1s_dec|shift_1s|shift|char_out[0]~5_combout $end
$var wire 1 M shift_1s_dec|shift_1s|shift|char_out[0]~DUPLICATE_q $end
$var wire 1 N shift_1s_dec|shift_1s|shift|char_out[2]~4_combout $end
$var wire 1 O shift_1s_dec|shift_1s|shift|char_out[2]~DUPLICATE_q $end
$var wire 1 P SW[0]~input_o $end
$var wire 1 Q shift_1s_dec|shift_1s|shift|char_out~3_combout $end
$var wire 1 R shift_1s_dec|shift_1s|shift|char_out~2_combout $end
$var wire 1 S shift_1s_dec|shift_1s|shift|char_out~1_combout $end
$var wire 1 T shift_1s_dec|shift_1s|shift|char_out~0_combout $end
$var wire 1 U shift_1s_dec|dec3|h[2]~0_combout $end
$var wire 1 V shift_1s_dec|dec3|h[2]~1_combout $end
$var wire 1 W shift_1s_dec|dec3|h[1]~2_combout $end
$var wire 1 X shift_1s_dec|dec3|h[2]~3_combout $end
$var wire 1 Y shift_1s_dec|dec2|h[2]~0_combout $end
$var wire 1 Z shift_1s_dec|dec2|h[2]~1_combout $end
$var wire 1 [ shift_1s_dec|dec2|h[1]~2_combout $end
$var wire 1 \ shift_1s_dec|dec2|h[2]~3_combout $end
$var wire 1 ] shift_1s_dec|dec1|h[2]~0_combout $end
$var wire 1 ^ shift_1s_dec|dec1|h[2]~1_combout $end
$var wire 1 _ shift_1s_dec|dec1|h[1]~2_combout $end
$var wire 1 ` shift_1s_dec|dec1|h[2]~3_combout $end
$var wire 1 a shift_1s_dec|dec0|h[2]~0_combout $end
$var wire 1 b shift_1s_dec|dec0|h[2]~1_combout $end
$var wire 1 c shift_1s_dec|dec0|h[1]~2_combout $end
$var wire 1 d shift_1s_dec|dec0|h[2]~3_combout $end
$var wire 1 e shift_1s_dec|dec2|h [0] $end
$var wire 1 f shift_1s_dec|dec2|h [1] $end
$var wire 1 g shift_1s_dec|dec2|h [2] $end
$var wire 1 h shift_1s_dec|dec2|h [3] $end
$var wire 1 i shift_1s_dec|dec2|h [4] $end
$var wire 1 j shift_1s_dec|dec2|h [5] $end
$var wire 1 k shift_1s_dec|dec2|h [6] $end
$var wire 1 l shift_1s_dec|shift_1s|shift|char_out [7] $end
$var wire 1 m shift_1s_dec|shift_1s|shift|char_out [6] $end
$var wire 1 n shift_1s_dec|shift_1s|shift|char_out [5] $end
$var wire 1 o shift_1s_dec|shift_1s|shift|char_out [4] $end
$var wire 1 p shift_1s_dec|shift_1s|shift|char_out [3] $end
$var wire 1 q shift_1s_dec|shift_1s|shift|char_out [2] $end
$var wire 1 r shift_1s_dec|shift_1s|shift|char_out [1] $end
$var wire 1 s shift_1s_dec|shift_1s|shift|char_out [0] $end
$var wire 1 t shift_1s_dec|dec0|h [0] $end
$var wire 1 u shift_1s_dec|dec0|h [1] $end
$var wire 1 v shift_1s_dec|dec0|h [2] $end
$var wire 1 w shift_1s_dec|dec0|h [3] $end
$var wire 1 x shift_1s_dec|dec0|h [4] $end
$var wire 1 y shift_1s_dec|dec0|h [5] $end
$var wire 1 z shift_1s_dec|dec0|h [6] $end
$var wire 1 { shift_1s_dec|dec1|h [0] $end
$var wire 1 | shift_1s_dec|dec1|h [1] $end
$var wire 1 } shift_1s_dec|dec1|h [2] $end
$var wire 1 ~ shift_1s_dec|dec1|h [3] $end
$var wire 1 !! shift_1s_dec|dec1|h [4] $end
$var wire 1 "! shift_1s_dec|dec1|h [5] $end
$var wire 1 #! shift_1s_dec|dec1|h [6] $end
$var wire 1 $! shift_1s_dec|dec3|h [0] $end
$var wire 1 %! shift_1s_dec|dec3|h [1] $end
$var wire 1 &! shift_1s_dec|dec3|h [2] $end
$var wire 1 '! shift_1s_dec|dec3|h [3] $end
$var wire 1 (! shift_1s_dec|dec3|h [4] $end
$var wire 1 )! shift_1s_dec|dec3|h [5] $end
$var wire 1 *! shift_1s_dec|dec3|h [6] $end
$var wire 1 +! shift_1s_dec|shift_1s|fast_counter|Q [2] $end
$var wire 1 ,! shift_1s_dec|shift_1s|fast_counter|Q [1] $end
$var wire 1 -! shift_1s_dec|shift_1s|fast_counter|Q [0] $end
$upscope $end
$upscope $end
$enddefinitions $end
#0
$dumpvars
0!
b0 "
0)
1(
0'
0&
0%
1$
1#
00
0/
0.
1-
0,
0+
0*
07
16
05
04
13
02
01
0>
0=
1<
0;
0:
19
08
0?
1@
xA
1B
1C
1D
0E
0F
0G
0H
1I
0J
0K
1L
0M
1N
0O
0P
1Q
0R
1S
0T
0U
0V
0W
0X
0Y
1Z
1[
0\
1]
0^
1_
0`
0a
0b
0c
1d
zk
zj
1i
zh
zg
zf
ze
0s
0r
0q
0p
zo
0n
zm
0l
zz
zy
1x
zw
zv
zu
zt
z#!
z"!
1!!
z~
z}
z|
z{
z*!
z)!
0(!
z'!
z&!
z%!
z$!
0-!
0,!
0+!
$end
#2000
1!
1F
1G
1-!
0I
1K
1J
1s
1n
1r
1M
1q
1O
1=
1/
0(
06
0x
0_
1W
1(!
0L
0d
0Z
1Y
0N
1T
1R
1`
0]
1V
1:
0-
1*
14
03
0#
0<
09
1+
1'
#4000
0!
0F
0G
#6000
1!
1F
1G
1,!
0-!
1I
#8000
0!
0F
0G
#10000
1!
1F
1G
1-!
0I
0J
1H
#12000
0!
0F
0G
#14000
1!
1F
1G
0,!
0-!
1+!
0H
#16000
0!
0F
0G
#18000
1!
1F
1G
0+!
1I
0K
#20000
0!
0F
0G
#22000
1!
1F
1G
1-!
0I
1K
1J
0s
1l
1p
0M
0q
0O
0=
0/
1(
16
1c
1x
0[
0!!
1L
1b
1\
0Y
1N
0`
0S
0Q
0V
1U
1;
0:
0*
04
11
1%
1.
12
0'
0$
#24000
0!
0F
0G
#26000
1!
1F
1G
1,!
0-!
1I
#28000
0!
0F
0G
#30000
1!
1F
1G
1-!
0I
0J
1H
#32000
0!
0F
0G
#34000
1!
1F
1G
0,!
0-!
1+!
0H
#36000
0!
0F
0G
#38000
1!
1F
1G
0+!
1I
0K
#40000
0!
0F
0G
#42000
1!
1F
1G
1-!
0I
1K
1J
1s
0n
0r
1M
1q
1O
1=
1/
0(
06
0i
1_
1!!
0W
0L
0b
1a
0\
0N
0T
0R
1^
1X
0U
0;
18
1,
01
1&
0%
19
0.
0+
15
#44000
0!
0F
0G
#46000
1!
1F
1G
1,!
0-!
1I
#48000
0!
0F
0G
#50000
1!
1F
1G
1-!
0I
0J
1H
#52000
0!
0F
0G
#54000
1!
1F
1G
0,!
0-!
1+!
0H
#56000
0!
0F
0G
#58000
1!
1F
1G
0+!
1I
0K
#60000
0!
0F
0G
#62000
1!
1F
1G
1-!
0I
1K
1J
0s
0l
0p
0M
0q
0O
0=
0/
1(
16
0c
1[
1i
0(!
1L
1d
0a
1Z
1N
0^
1]
1S
1Q
0X
08
1-
0,
13
0&
1#
1<
05
02
1$
#64000
0!
0F
0G
#66000
1!
1F
1G
1,!
0-!
1I
#68000
0!
0F
0G
#70000
1!
1F
1G
1-!
0I
0J
1H
#72000
0!
0F
0G
#74000
b1 "
1!
1P
1F
1G
1T
0S
1R
0Q
0,!
0-!
1+!
0H
#76000
0!
0F
0G
#78000
1!
1F
1G
0+!
1I
0K
#80000
0!
0F
0G
#82000
1!
1F
1G
1-!
0I
1K
1J
1s
1l
1p
1M
1q
1O
1=
1/
0(
06
1c
0[
0i
1(!
0L
0d
1a
0Z
0N
1^
0]
1S
1Q
1X
18
0-
1,
03
1&
0#
0<
15
12
0$
#84000
0!
0F
0G
#86000
1!
1F
1G
1,!
0-!
1I
#88000
0!
0F
0G
#90000
1!
1F
1G
1-!
0I
0J
1H
#92000
0!
0F
0G
#94000
1!
1F
1G
0,!
0-!
1+!
0H
#96000
0!
0F
0G
#98000
1!
1F
1G
0+!
1I
0K
