LAB 7/Zadanie 3/real_time_clock/simulation/qsim/real_time_clock.msim.vcd
$comment
	File created using the following command:
		vcd file real_time_clock.msim.vcd -direction
$end
$date
	Mon Apr 15 14:59:14 2024
$end
$version
	ModelSim Version 10.5b
$end
$timescale
	1ps
$end

$scope module real_time_clock_vlg_vec_tst $end
$var reg 1 ! clk $end
$var reg 8 " data [7:0] $end
$var reg 1 # load_csec $end
$var reg 1 $ load_min $end
$var reg 1 % load_sec $end
$var reg 1 & timer_enable $end
$var wire 1 ' csec [7] $end
$var wire 1 ( csec [6] $end
$var wire 1 ) csec [5] $end
$var wire 1 * csec [4] $end
$var wire 1 + csec [3] $end
$var wire 1 , csec [2] $end
$var wire 1 - csec [1] $end
$var wire 1 . csec [0] $end
$var wire 1 / min [7] $end
$var wire 1 0 min [6] $end
$var wire 1 1 min [5] $end
$var wire 1 2 min [4] $end
$var wire 1 3 min [3] $end
$var wire 1 4 min [2] $end
$var wire 1 5 min [1] $end
$var wire 1 6 min [0] $end
$var wire 1 7 sec [7] $end
$var wire 1 8 sec [6] $end
$var wire 1 9 sec [5] $end
$var wire 1 : sec [4] $end
$var wire 1 ; sec [3] $end
$var wire 1 < sec [2] $end
$var wire 1 = sec [1] $end
$var wire 1 > sec [0] $end

$scope module i1 $end
$var wire 1 ? gnd $end
$var wire 1 @ vcc $end
$var wire 1 A unknown $end
$var tri1 1 B devclrn $end
$var tri1 1 C devpor $end
$var tri1 1 D devoe $end
$var wire 1 E ~QUARTUS_CREATED_GND~I_combout $end
$var wire 1 F data[0]~input_o $end
$var wire 1 G load_csec~input_o $end
$var wire 1 H counter_centisec0|Q[0]~1_combout $end
$var wire 1 I clk~input_o $end
$var wire 1 J fast_clock_delay|fast_counter|Q[0]~0_combout $end
$var wire 1 K fast_clock_delay|fast_counter|Q[0]~feeder_combout $end
$var wire 1 L data[3]~input_o $end
$var wire 1 M counter_centisec0|Q[3]~13_combout $end
$var wire 1 N data[1]~input_o $end
$var wire 1 O counter_centisec0|Q[1]~5_combout $end
$var wire 1 P counter_centisec0|Q[1]~7_combout $end
$var wire 1 Q timer_enable~input_o $end
$var wire 1 R enable~0_combout $end
$var wire 1 S enable~q $end
$var wire 1 T counter_centisec0|Q[1]~_emulated_q $end
$var wire 1 U counter_centisec0|Q[1]~6_combout $end
$var wire 1 V data[2]~input_o $end
$var wire 1 W counter_centisec0|Q[2]~9_combout $end
$var wire 1 X counter_centisec0|Add0~0_combout $end
$var wire 1 Y counter_centisec0|Q[2]~11_combout $end
$var wire 1 Z counter_centisec0|Q[2]~_emulated_q $end
$var wire 1 [ counter_centisec0|Q[2]~10_combout $end
$var wire 1 \ counter_centisec0|Add0~1_combout $end
$var wire 1 ] counter_centisec0|Q[3]~15_combout $end
$var wire 1 ^ counter_centisec0|Q[3]~_emulated_q $end
$var wire 1 _ counter_centisec0|Q[3]~14_combout $end
$var wire 1 ` counter_centisec0|Equal0~combout $end
$var wire 1 a counter_centisec0|Q~20_combout $end
$var wire 1 b counter_centisec0|Q[0]~3_combout $end
$var wire 1 c counter_centisec0|Q[0]~_emulated_q $end
$var wire 1 d counter_centisec0|Q[0]~2_combout $end
$var wire 1 e data[4]~input_o $end
$var wire 1 f counter_centisec1|Q[0]~1_combout $end
$var wire 1 g data[5]~input_o $end
$var wire 1 h counter_centisec1|Q[1]~5_combout $end
$var wire 1 i counter_centisec1|Q[1]~7_combout $end
$var wire 1 j counter_centisec1|Q[1]~_emulated_q $end
$var wire 1 k counter_centisec1|Q[1]~6_combout $end
$var wire 1 l data[6]~input_o $end
$var wire 1 m counter_centisec1|Q[2]~9_combout $end
$var wire 1 n counter_centisec1|Add0~0_combout $end
$var wire 1 o counter_centisec1|Q[2]~11_combout $end
$var wire 1 p counter_centisec1|Q[2]~_emulated_q $end
$var wire 1 q counter_centisec1|Q[2]~10_combout $end
$var wire 1 r data[7]~input_o $end
$var wire 1 s counter_centisec1|Q[3]~13_combout $end
$var wire 1 t counter_centisec1|Add0~1_combout $end
$var wire 1 u counter_centisec1|Q[3]~15_combout $end
$var wire 1 v counter_centisec1|Q[3]~_emulated_q $end
$var wire 1 w counter_centisec1|Q[3]~14_combout $end
$var wire 1 x counter_centisec1|Equal0~combout $end
$var wire 1 y counter_centisec1|Q~20_combout $end
$var wire 1 z counter_centisec1|Q[0]~3_combout $end
$var wire 1 { counter_centisec1|Q[0]~_emulated_q $end
$var wire 1 | counter_centisec1|Q[0]~2_combout $end
$var wire 1 } load_sec~input_o $end
$var wire 1 ~ counter_sec0|Q[0]~1_combout $end
$var wire 1 !! counter_sec0|Q[3]~13_combout $end
$var wire 1 "! counter_sec0|Q[2]~9_combout $end
$var wire 1 #! counter_sec0|Q[1]~5_combout $end
$var wire 1 $! counter_sec0|Q[1]~7_combout $end
$var wire 1 %! counter_sec0|Q[1]~_emulated_q $end
$var wire 1 &! counter_sec0|Q[1]~6_combout $end
$var wire 1 '! counter_sec0|Add0~0_combout $end
$var wire 1 (! counter_sec0|Q[2]~11_combout $end
$var wire 1 )! counter_sec0|Q[2]~_emulated_q $end
$var wire 1 *! counter_sec0|Q[2]~10_combout $end
$var wire 1 +! counter_sec0|Add0~1_combout $end
$var wire 1 ,! counter_sec0|Q[3]~15_combout $end
$var wire 1 -! counter_sec0|Q[3]~_emulated_q $end
$var wire 1 .! counter_sec0|Q[3]~14_combout $end
$var wire 1 /! counter_sec0|Equal0~combout $end
$var wire 1 0! counter_sec0|Q~20_combout $end
$var wire 1 1! counter_sec0|Q[0]~3_combout $end
$var wire 1 2! counter_sec0|Q[0]~_emulated_q $end
$var wire 1 3! counter_sec0|Q[0]~2_combout $end
$var wire 1 4! counter_sec1|Q[0]~1_combout $end
$var wire 1 5! counter_sec1|Q[2]~9_combout $end
$var wire 1 6! counter_sec1|Q[1]~5_combout $end
$var wire 1 7! counter_sec1|Q[1]~7_combout $end
$var wire 1 8! counter_sec1|Q[1]~_emulated_q $end
$var wire 1 9! counter_sec1|Q[1]~6_combout $end
$var wire 1 :! counter_sec1|Add0~0_combout $end
$var wire 1 ;! counter_sec1|Q[2]~11_combout $end
$var wire 1 <! counter_sec1|Q[2]~_emulated_q $end
$var wire 1 =! counter_sec1|Q[2]~10_combout $end
$var wire 1 >! counter_sec1|Equal0~combout $end
$var wire 1 ?! counter_sec1|Q~15_combout $end
$var wire 1 @! counter_sec1|Q[0]~3_combout $end
$var wire 1 A! counter_sec1|Q[0]~_emulated_q $end
$var wire 1 B! counter_sec1|Q[0]~2_combout $end
$var wire 1 C! load_min~input_o $end
$var wire 1 D! counter_min0|Q[0]~1_combout $end
$var wire 1 E! counter_min0|Q[2]~9_combout $end
$var wire 1 F! counter_min0|Q[1]~5_combout $end
$var wire 1 G! counter_min0|Q[1]~7_combout $end
$var wire 1 H! counter_min0|Q[1]~_emulated_q $end
$var wire 1 I! counter_min0|Q[1]~6_combout $end
$var wire 1 J! counter_min0|Add0~0_combout $end
$var wire 1 K! counter_min0|Q[2]~11_combout $end
$var wire 1 L! counter_min0|Q[2]~_emulated_q $end
$var wire 1 M! counter_min0|Q[2]~10_combout $end
$var wire 1 N! counter_min0|Q[3]~13_combout $end
$var wire 1 O! counter_min0|Add0~1_combout $end
$var wire 1 P! counter_min0|Q[3]~15_combout $end
$var wire 1 Q! counter_min0|Q[3]~_emulated_q $end
$var wire 1 R! counter_min0|Q[3]~14_combout $end
$var wire 1 S! counter_min0|Equal0~combout $end
$var wire 1 T! counter_min0|Q~20_combout $end
$var wire 1 U! counter_min0|Q[0]~3_combout $end
$var wire 1 V! counter_min0|Q[0]~_emulated_q $end
$var wire 1 W! counter_min0|Q[0]~2_combout $end
$var wire 1 X! counter_min1|Q[0]~1_combout $end
$var wire 1 Y! counter_min1|Q[0]~3_combout $end
$var wire 1 Z! counter_min1|Q[0]~_emulated_q $end
$var wire 1 [! counter_min1|Q[0]~2_combout $end
$var wire 1 \! counter_min1|Q[2]~9_combout $end
$var wire 1 ]! counter_min1|Q[2]~11_combout $end
$var wire 1 ^! counter_min1|Q[2]~_emulated_q $end
$var wire 1 _! counter_min1|Q[2]~10_combout $end
$var wire 1 `! counter_min1|Q[1]~5_combout $end
$var wire 1 a! counter_min1|Q[1]~7_combout $end
$var wire 1 b! counter_min1|Q[1]~_emulated_q $end
$var wire 1 c! counter_min1|Q[1]~6_combout $end
$var wire 1 d! fast_clock_delay|fast_counter|Q [0] $end
$upscope $end
$upscope $end
$enddefinitions $end
#0
$dumpvars
0!
b10010101 "
0#
0$
0%
0&
x.
x-
x,
x+
x*
x)
x(
x'
x6
x5
x4
x3
x2
x1
x0
0/
x>
x=
x<
x;
x:
x9
x8
07
0?
1@
xA
1B
1C
1D
0E
1F
0G
xH
0I
1J
1K
0L
xM
0N
xO
xP
0Q
1R
0S
0T
xU
1V
xW
xX
xY
0Z
x[
x\
x]
0^
x_
x`
xa
xb
0c
xd
1e
xf
0g
xh
xi
0j
xk
0l
xm
xn
xo
0p
xq
1r
xs
xt
xu
0v
xw
xx
xy
xz
0{
x|
0}
x~
x!!
x"!
x#!
x$!
0%!
x&!
x'!
x(!
0)!
x*!
x+!
x,!
0-!
x.!
x/!
x0!
x1!
02!
x3!
x4!
x5!
x6!
x7!
08!
x9!
x:!
x;!
0<!
x=!
x>!
x?!
x@!
0A!
xB!
0C!
xD!
xE!
xF!
xG!
0H!
xI!
xJ!
xK!
0L!
xM!
xN!
xO!
xP!
0Q!
xR!
xS!
xT!
xU!
0V!
xW!
xX!
xY!
1Z!
x[!
x\!
x]!
0^!
x_!
x`!
xa!
0b!
xc!
0d!
$end
#1000
1!
1I
1d!
0J
0K
#2000
1#
0!
1G
0I
1s
0m
0h
1f
1W
0O
0M
1H
1|
1w
0q
0k
1d
0_
1[
0U
0-
1,
0+
1.
0)
0(
1'
1*
0\
0X
0a
0t
0n
0y
1`
0x
1z
0o
1u
1b
0Y
0]
0i
1P
#3000
1!
1I
0d!
1J
1K
#4000
b10101 "
b1010101 "
b1011101 "
b1011001 "
0#
0!
0V
1L
1l
0r
0G
0I
#5000
1!
1I
1d!
0J
0K
#6000
1%
0!
1}
0I
06!
15!
14!
0#!
0"!
1!!
1~
1B!
1=!
09!
13!
1.!
0*!
0&!
0=
0<
1;
1>
09
18
1:
0+!
0'!
00!
0:!
0?!
0/!
0>!
1@!
1;!
11!
0(!
1,!
07!
0$!
#7000
1!
1I
0d!
1J
1K
#8000
b1111001 "
b1101001 "
b1101000 "
b101000 "
b100000 "
b100100 "
0%
0!
0F
1V
0L
0e
1g
0l
0}
0I
#9000
1!
1I
1d!
0J
0K
#10000
1$
0!
1C!
0I
1`!
0\!
0X!
0N!
0F!
1E!
0D!
1c!
0_!
0[!
0W!
0R!
1M!
0I!
05
14
03
06
02
00
11
0O!
0J!
0G!
1Y!
0]!
0a!
1S!
1T!
0K!
0P!
1U!
0Z!
#11000
1!
1I
0d!
1J
1K
#12000
b100 "
b0 "
0$
0!
0V
0g
0C!
0I
#13000
1!
1I
1d!
0J
0K
#14000
1&
0!
1Q
0I
1S
0R
#15000
1!
1I
0d!
1J
1K
1T
1c
0d
1U
1-
0.
1a
0b
#16000
0&
0!
0Q
0I
#17000
1!
1I
1d!
0J
0K
#18000
0!
0I
#19000
1!
1I
0d!
1J
1K
0c
1d
1.
0a
1\
1X
0P
1Y
1]
1b
#20000
0!
0I
#21000
1!
1I
1d!
0J
0K
#22000
0!
0I
#23000
1!
1I
0d!
1J
1K
0T
1Z
1^
1c
0d
1_
0[
0U
0-
0,
1+
0.
0\
0X
1a
0Y
0]
0b
1Y
1]
#24000
0!
0I
#25000
1!
1I
1d!
0J
0K
#26000
0!
0I
#27000
1!
1I
0d!
1J
1K
0c
1d
1.
0a
0`
1P
1b
0]
0P
#28000
0!
0I
#29000
1!
1I
1d!
0J
0K
#30000
0!
0I
#31000
1!
1I
0d!
1J
1K
0^
1c
0d
0_
0+
0.
1`
1a
0b
1{
1v
0w
0|
0*
0'
1x
1y
0z
12!
1-!
0.!
03!
0>
0;
1/!
10!
01!
1A!
1<!
0=!
0B!
0:
08
1>!
1?!
0@!
1V!
1W!
16
0T!
1G!
0U!
#32000
0!
0I
#33000
1!
1I
1d!
0J
0K
#34000
0!
0I
#35000
1!
1I
0d!
1J
1K
0c
1d
1.
0a
1P
1b
#36000
0!
0I
#37000
1!
1I
1d!
0J
0K
#38000
0!
0I
#39000
1!
1I
0d!
1J
1K
1T
1c
0d
1U
1-
0.
1a
0b
#40000
0!
0I
#41000
1!
1I
1d!
0J
0K
#42000
0!
0I
#43000
1!
1I
0d!
1J
1K
0c
1d
1.
0a
1X
0P
0Y
1b
#44000
0!
0I
#45000
1!
1I
1d!
0J
0K
#46000
0!
0I
#47000
1!
1I
0d!
1J
1K
0T
0Z
1c
0d
1[
0U
0-
1,
0.
0X
1a
1Y
0b
0Y
#48000
0!
0I
#49000
1!
1I
1d!
0J
0K
#50000
0!
0I
#51000
1!
1I
0d!
1J
1K
0c
1d
1.
0a
1P
1b
#52000
0!
0I
#53000
1!
1I
1d!
0J
0K
#54000
0!
0I
#55000
1!
1I
0d!
1J
1K
1T
1c
0d
1U
1-
0.
1a
0b
#56000
0!
0I
#57000
1!
1I
1d!
0J
0K
#58000
0!
0I
#59000
1!
1I
0d!
1J
1K
0c
1d
1.
0a
1\
1X
0P
1Y
1]
1b
#60000
0!
0I
#61000
1!
1I
1d!
0J
0K
#62000
0!
0I
#63000
1!
1I
0d!
1J
1K
0T
1Z
1^
1c
0d
1_
0[
0U
0-
0,
1+
0.
0\
0X
1a
0Y
0]
0b
1Y
1]
#64000
0!
0I
#65000
1!
1I
1d!
0J
0K
#66000
0!
0I
#67000
1!
1I
0d!
1J
1K
0c
1d
1.
0a
0`
1P
1b
0]
0P
#68000
0!
0I
#69000
1!
1I
1d!
0J
0K
#70000
0!
0I
#71000
1!
1I
0d!
1J
1K
0^
1c
0d
0_
0+
0.
1`
1a
0b
0{
1|
1*
0y
1i
1z
#72000
0!
0I
#73000
1!
1I
1d!
0J
0K
#74000
0!
0I
#75000
1!
1I
0d!
1J
1K
0c
1d
1.
0a
1P
1b
#76000
0!
0I
#77000
1!
1I
1d!
0J
0K
#78000
0!
0I
#79000
1!
1I
0d!
1J
1K
1T
1c
0d
1U
1-
0.
1a
0b
#80000
0!
0I
#81000
1!
1I
1d!
0J
0K
#82000
0!
0I
#83000
1!
1I
0d!
1J
1K
0c
1d
1.
0a
1X
0P
0Y
1b
#84000
0!
0I
#85000
1!
1I
1d!
0J
0K
#86000
0!
0I
#87000
1!
1I
0d!
1J
1K
0T
0Z
1c
0d
1[
0U
0-
1,
0.
0X
1a
1Y
0b
0Y
#88000
0!
0I
#89000
1!
1I
1d!
0J
0K
#90000
0!
0I
#91000
1!
1I
0d!
1J
1K
0c
1d
1.
0a
1P
1b
#92000
0!
0I
#93000
1!
1I
1d!
0J
0K
#94000
0!
0I
#95000
1!
1I
0d!
1J
1K
1T
1c
0d
1U
1-
0.
1a
0b
#96000
0!
0I
#97000
1!
1I
1d!
0J
0K
#98000
0!
0I
#99000
1!
1I
0d!
1J
1K
0c
1d
1.
0a
1\
1X
0P
1Y
1]
1b
#100000
0!
0I
#101000
1!
1I
1d!
0J
0K
#102000
0!
0I
#103000
1!
1I
0d!
1J
1K
0T
1Z
1^
1c
0d
1_
0[
0U
0-
0,
1+
0.
0\
0X
1a
0Y
0]
0b
1Y
1]
#104000
0!
0I
#105000
1!
1I
1d!
0J
0K
#106000
0!
0I
#107000
1!
1I
0d!
1J
1K
0c
1d
1.
0a
0`
1P
1b
0]
0P
#108000
0!
0I
#109000
1!
1I
1d!
0J
0K
#110000
0!
0I
#111000
1!
1I
0d!
1J
1K
0^
1c
0d
0_
0+
0.
1`
1a
0b
1{
1j
1k
0|
0*
1)
1y
0z
#112000
0!
0I
#113000
1!
1I
1d!
0J
0K
#114000
0!
0I
#115000
1!
1I
0d!
1J
1K
0c
1d
1.
0a
1P
1b
#116000
0!
0I
#117000
1!
1I
1d!
0J
0K
#118000
0!
0I
#119000
1!
1I
0d!
1J
1K
1T
1c
0d
1U
1-
0.
1a
0b
#120000
0!
0I
#121000
1!
1I
1d!
0J
0K
#122000
0!
0I
#123000
1!
1I
0d!
1J
1K
0c
1d
1.
0a
1X
0P
0Y
1b
#124000
0!
0I
#125000
1!
1I
1d!
0J
0K
#126000
0!
0I
#127000
1!
1I
0d!
1J
1K
0T
0Z
1c
0d
1[
0U
0-
1,
0.
0X
1a
1Y
0b
0Y
#128000
0!
0I
#129000
1!
1I
1d!
0J
0K
#130000
0!
0I
#131000
1!
1I
0d!
1J
1K
0c
1d
1.
0a
1P
1b
#132000
0!
0I
#133000
1!
1I
1d!
0J
0K
#134000
0!
0I
#135000
1!
1I
0d!
1J
1K
1T
1c
0d
1U
1-
0.
1a
0b
#136000
0!
0I
#137000
1!
1I
1d!
0J
0K
#138000
0!
0I
#139000
1!
1I
0d!
1J
1K
0c
1d
1.
0a
1\
1X
0P
1Y
1]
1b
#140000
0!
0I
#141000
1!
1I
1d!
0J
0K
#142000
0!
0I
#143000
1!
1I
0d!
1J
1K
0T
1Z
1^
1c
0d
1_
0[
0U
0-
0,
1+
0.
0\
0X
1a
0Y
0]
0b
1Y
1]
#144000
0!
0I
#145000
1!
1I
1d!
0J
0K
#146000
0!
0I
#147000
1!
1I
0d!
1J
1K
0c
1d
1.
0a
0`
1P
1b
0]
0P
#148000
0!
0I
#149000
1!
1I
1d!
0J
0K
#150000
0!
0I
#151000
1!
1I
0d!
1J
1K
0^
1c
0d
0_
0+
0.
1`
1a
0b
0{
1|
1*
0y
1n
0i
1o
1z
#152000
0!
0I
#153000
1!
1I
1d!
0J
0K
#154000
0!
0I
#155000
1!
1I
0d!
1J
1K
0c
1d
1.
0a
1P
1b
#156000
0!
0I
#157000
1!
1I
1d!
0J
0K
#158000
0!
0I
#159000
1!
1I
0d!
1J
1K
1T
1c
0d
1U
1-
0.
1a
0b
