LAB 7/Zadanie 4/led_blink_timer_on_board/simulation/qsim/led_blink_timer_on_board.msim.vcd
$comment
	File created using the following command:
		vcd file led_blink_timer_on_board.msim.vcd -direction
$end
$date
	Mon Apr 15 14:36:20 2024
$end
$version
	ModelSim Version 10.5b
$end
$timescale
	1ps
$end

$scope module led_blink_timer_on_board_vlg_vec_tst $end
$var reg 1 ! CLOCK_50 $end
$var wire 1 " LEDR [7] $end
$var wire 1 # LEDR [6] $end
$var wire 1 $ LEDR [5] $end
$var wire 1 % LEDR [4] $end
$var wire 1 & LEDR [3] $end
$var wire 1 ' LEDR [2] $end
$var wire 1 ( LEDR [1] $end
$var wire 1 ) LEDR [0] $end

$scope module i1 $end
$var wire 1 * gnd $end
$var wire 1 + vcc $end
$var wire 1 , unknown $end
$var tri1 1 - devclrn $end
$var tri1 1 . devpor $end
$var tri1 1 / devoe $end
$var wire 1 0 ~QUARTUS_CREATED_GND~I_combout $end
$var wire 1 1 CLOCK_50~input_o $end
$var wire 1 2 CLOCK_50~inputCLKENA0_outclk $end
$var wire 1 3 timer0|timer_0_5s|cnt[2]~0_combout $end
$var wire 1 4 timer0|timer_0_5s|cnt~2_combout $end
$var wire 1 5 timer0|timer_0_5s|cnt[2]~DUPLICATE_q $end
$var wire 1 6 timer0|timer_0_5s|cnt~1_combout $end
$var wire 1 7 timer0|timer_0_5s|cnt[1]~DUPLICATE_q $end
$var wire 1 8 timer0|timer_0_5s|slow_clk~0_combout $end
$var wire 1 9 timer0|timer_0_5s|slow_clk~q $end
$var wire 1 : timer0|timer_0_5s|cnt [2] $end
$var wire 1 ; timer0|timer_0_5s|cnt [1] $end
$var wire 1 < timer0|timer_0_5s|cnt [0] $end
$upscope $end
$upscope $end
$enddefinitions $end
#0
$dumpvars
0!
1)
1(
1'
1&
1%
1$
1#
1"
0*
1+
x,
1-
1.
1/
00
01
02
13
14
05
16
07
08
09
0<
0;
0:
$end
#2000
1!
11
12
17
15
1<
1:
1;
04
#4000
0!
01
02
#6000
1!
11
12
0<
06
14
#8000
0!
01
02
#10000
1!
11
12
07
1<
0;
04
#12000
0!
01
02
#14000
1!
11
12
0<
18
03
#16000
0!
01
02
#18000
1!
11
12
19
05
0:
0"
0#
0$
0%
0&
0'
0(
0)
14
13
16
#20000
0!
01
02
#22000
1!
11
12
17
15
1<
1:
1;
04
#24000
0!
01
02
#26000
1!
11
12
0<
06
14
#28000
0!
01
02
#30000
1!
11
12
07
1<
0;
04
#32000
0!
01
02
#34000
1!
11
12
0<
08
03
#36000
0!
01
02
#38000
1!
11
12
09
05
0:
1"
1#
1$
1%
1&
1'
1(
1)
14
13
16
#40000
0!
01
02
#42000
1!
11
12
17
15
1<
1:
1;
04
#44000
0!
01
02
#46000
1!
11
12
0<
06
14
#48000
0!
01
02
#50000
1!
11
12
07
1<
0;
04
#52000
0!
01
02
#54000
1!
11
12
0<
18
03
#56000
0!
01
02
#58000
1!
11
12
19
05
0:
0"
0#
0$
0%
0&
0'
0(
0)
14
13
16
