LAB 4/Zadanie 2/binary_to_hex/simulation/qsim/binary_to_hex.msim.vcd
$comment
	File created using the following command:
		vcd file binary_to_hex.msim.vcd -direction
$end
$date
	Fri Mar 29 16:25:39 2024
$end
$version
	ModelSim Version 10.5b
$end
$timescale
	1ps
$end

$scope module binary_to_hex_vlg_vec_tst $end
$var reg 4 ! b0 [3:0] $end
$var reg 4 " b1 [3:0] $end
$var wire 1 # H0 [0] $end
$var wire 1 $ H0 [1] $end
$var wire 1 % H0 [2] $end
$var wire 1 & H0 [3] $end
$var wire 1 ' H0 [4] $end
$var wire 1 ( H0 [5] $end
$var wire 1 ) H0 [6] $end
$var wire 1 * H1 [0] $end
$var wire 1 + H1 [1] $end
$var wire 1 , H1 [2] $end
$var wire 1 - H1 [3] $end
$var wire 1 . H1 [4] $end
$var wire 1 / H1 [5] $end
$var wire 1 0 H1 [6] $end

$scope module i1 $end
$var wire 1 1 gnd $end
$var wire 1 2 vcc $end
$var wire 1 3 unknown $end
$var tri1 1 4 devclrn $end
$var tri1 1 5 devpor $end
$var tri1 1 6 devoe $end
$var wire 1 7 ~QUARTUS_CREATED_GND~I_combout $end
$var wire 1 8 b1[2]~input_o $end
$var wire 1 9 b1[3]~input_o $end
$var wire 1 : b1[1]~input_o $end
$var wire 1 ; b1[0]~input_o $end
$var wire 1 < dec1|WideOr6~0_combout $end
$var wire 1 = dec1|WideOr5~0_combout $end
$var wire 1 > dec1|WideOr4~0_combout $end
$var wire 1 ? dec1|WideOr3~0_combout $end
$var wire 1 @ dec1|WideOr2~0_combout $end
$var wire 1 A dec1|WideOr1~0_combout $end
$var wire 1 B dec1|WideOr0~0_combout $end
$var wire 1 C b0[3]~input_o $end
$var wire 1 D b0[1]~input_o $end
$var wire 1 E b0[0]~input_o $end
$var wire 1 F b0[2]~input_o $end
$var wire 1 G dec0|WideOr6~0_combout $end
$var wire 1 H dec0|WideOr5~0_combout $end
$var wire 1 I dec0|WideOr4~0_combout $end
$var wire 1 J dec0|WideOr3~0_combout $end
$var wire 1 K dec0|WideOr2~0_combout $end
$var wire 1 L dec0|WideOr1~0_combout $end
$var wire 1 M dec0|WideOr0~0_combout $end
$upscope $end
$upscope $end
$enddefinitions $end
#0
$dumpvars
b1101 !
b0 "
0)
1(
0'
0&
0%
0$
1#
10
0/
0.
0-
0,
0+
0*
01
12
x3
14
15
16
07
08
09
0:
0;
0<
0=
0>
0?
0@
0A
0B
1C
0D
1E
1F
1G
1H
0I
0J
0K
0L
1M
$end
#5000
b1000 "
b101 !
b1 !
b0 !
0E
0F
0C
19
1<
0G
0M
0H
0(
0#
1)
00
#10000
b1100 "
b1110 "
b10 !
b110 "
b11 !
1E
1D
1:
18
09
1G
1A
1I
1H
1(
1'
1+
0)
#15000
b111 "
b11 "
b10 !
0E
1;
08
0A
1>
1=
1K
0I
0'
1%
1/
1.
0+
#20000
b1 "
b0 !
b0 "
b100 "
b1 !
1E
0D
0;
0:
18
0G
1B
1?
0=
1M
0K
1J
1I
1'
1&
0%
1#
0/
1-
1*
1)
#25000
b101 !
b110 "
b111 "
1;
1:
1F
1G
0<
0M
1L
0J
0H
0B
1=
1/
0*
0(
0&
1$
0#
10
0)
#30000
b1111 "
b111 !
b1110 "
1D
0;
19
1<
0G
1A
1@
0?
0>
0=
0L
1J
1H
1(
1&
0$
0/
0.
0-
1,
1+
1)
00
#35000
b1111 !
b1010 "
b1110 !
08
0E
1C
1G
1L
1K
0J
0I
0H
0A
0@
1?
1-
0,
0+
0(
0'
0&
1%
1$
0)
#40000
b1010 !
b10 "
b1000 !
b1001 !
09
1E
0D
0F
0L
0K
1I
1@
0?
1=
1/
0-
1,
1'
0%
0$
#45000
b0 "
b1 "
b101 "
b1101 !
b1100 !
0E
1F
1;
0:
18
0G
1A
0@
1>
0=
1L
1K
0I
0'
1%
1$
0/
1.
0,
1+
1)
#50000
b100 !
b1101 "
b110 !
b1001 "
08
19
1D
0C
1G
0K
0A
0+
0%
0)
#55000
b1011 "
b100 !
b1111 "
0D
1:
18
1A
1@
1?
0>
1M
0L
1J
1I
1'
1&
0$
1#
0.
1-
1,
1+
#60000
b0 !
b1000 !
b111 "
b101 "
b1 "
0:
08
09
0F
1C
0<
0M
0J
0I
1B
0A
0@
1>
1=
1/
1.
0,
0+
1*
0'
0&
0#
10
#65000
b1001 !
b1011 !
b1111 !
b1001 "
b1011 "
1:
19
1E
1D
1F
1<
1L
1K
1J
1A
0?
0>
0=
0/
0.
0-
1+
1&
1%
1$
00
#70000
b1111 "
b1011 !
b1101 "
0F
0:
18
0A
1=
1M
0K
0J
0&
0%
1#
1/
0+
#75000
b1100 "
b1010 !
0E
0;
0<
0B
1A
1@
0=
0M
0L
1J
1&
0$
0#
0/
1,
1+
0*
10
