LAB 6/Zadanie 3/counter_mod_M/simulation/qsim/counter_mod_M.msim.vcd
$comment
	File created using the following command:
		vcd file counter_mod_M.msim.vcd -direction
$end
$date
	Wed Apr 10 19:12:10 2024
$end
$version
	ModelSim Version 10.5b
$end
$timescale
	1ps
$end

$scope module counter_mod_M_vlg_vec_tst $end
$var reg 1 ! aclr $end
$var reg 1 " clk $end
$var reg 1 # enable $end
$var wire 1 $ Q [3] $end
$var wire 1 % Q [2] $end
$var wire 1 & Q [1] $end
$var wire 1 ' Q [0] $end

$scope module i1 $end
$var wire 1 ( gnd $end
$var wire 1 ) vcc $end
$var wire 1 * unknown $end
$var tri1 1 + devclrn $end
$var tri1 1 , devpor $end
$var tri1 1 - devoe $end
$var wire 1 . ~QUARTUS_CREATED_GND~I_combout $end
$var wire 1 / clk~input_o $end
$var wire 1 0 clk~inputCLKENA0_outclk $end
$var wire 1 1 Q[0]~3_combout $end
$var wire 1 2 aclr~input_o $end
$var wire 1 3 enable~input_o $end
$var wire 1 4 Q[0]~reg0_q $end
$var wire 1 5 Q[2]~1_combout $end
$var wire 1 6 Q[2]~reg0_q $end
$var wire 1 7 Q~2_combout $end
$var wire 1 8 Q[3]~reg0_q $end
$var wire 1 9 Q~0_combout $end
$var wire 1 : Q[1]~reg0_q $end
$upscope $end
$upscope $end
$enddefinitions $end
#0
$dumpvars
1!
0"
1#
0'
0&
0%
0$
0(
1)
x*
1+
1,
1-
0.
0/
00
11
12
13
04
05
06
07
08
09
0:
$end
#2000
1"
1/
10
14
1'
19
01
#4000
0"
0/
00
#6000
1"
1/
10
1:
04
0'
1&
11
#8000
0"
0/
00
#10000
1"
1/
10
14
1'
09
15
01
#12000
0"
0/
00
#14000
1"
1/
10
0:
16
04
0'
1%
0&
11
#16000
0"
0/
00
#18000
1"
1/
10
14
1'
19
01
#20000
0"
0/
00
#22000
1"
1/
10
1:
04
0'
1&
11
#24000
0"
0/
00
#26000
1"
1/
10
14
1'
09
17
05
01
#28000
0"
0/
00
#30000
1"
1/
10
0:
18
06
04
0'
0%
1$
0&
11
#32000
0"
0/
00
#34000
1"
1/
10
14
1'
07
01
#36000
0"
0/
00
#38000
1"
1/
10
08
04
0'
0$
11
#40000
0"
0/
00
#42000
1"
1/
10
14
1'
19
01
#44000
0"
0/
00
#46000
0#
1"
03
1/
10
#48000
0"
0/
00
#50000
1#
1"
13
1/
10
1:
04
0'
1&
11
#52000
0"
0/
00
#54000
0!
1"
02
1/
10
0:
0&
09
#56000
1!
0"
12
0/
00
#58000
1"
1/
10
14
1'
19
01
#60000
0"
0/
00
#62000
1"
1/
10
1:
04
0'
1&
11
