LAB 9/Zadanie 1/FSM_one_hot/simulation/qsim/FSM_one_hot.msim.vcd
$comment
	File created using the following command:
		vcd file FSM_one_hot.msim.vcd -direction
$end
$date
	Sun May 05 00:52:47 2024
$end
$version
	ModelSim Version 10.5b
$end
$timescale
	1ps
$end

$scope module FSM_one_hot_vlg_vec_tst $end
$var reg 1 ! aclr $end
$var reg 1 " clk $end
$var reg 1 # w $end
$var wire 1 $ y [8] $end
$var wire 1 % y [7] $end
$var wire 1 & y [6] $end
$var wire 1 ' y [5] $end
$var wire 1 ( y [4] $end
$var wire 1 ) y [3] $end
$var wire 1 * y [2] $end
$var wire 1 + y [1] $end
$var wire 1 , y [0] $end
$var wire 1 - z $end

$scope module i1 $end
$var wire 1 . gnd $end
$var wire 1 / vcc $end
$var wire 1 0 unknown $end
$var tri1 1 1 devclrn $end
$var tri1 1 2 devpor $end
$var tri1 1 3 devoe $end
$var wire 1 4 ~QUARTUS_CREATED_GND~I_combout $end
$var wire 1 5 clk~input_o $end
$var wire 1 6 clk~inputCLKENA0_outclk $end
$var wire 1 7 w~input_o $end
$var wire 1 8 Selector0~0_combout $end
$var wire 1 9 aclr~input_o $end
$var wire 1 : state.B~q $end
$var wire 1 ; next.C~0_combout $end
$var wire 1 < state.C~q $end
$var wire 1 = next.D~0_combout $end
$var wire 1 > state.D~q $end
$var wire 1 ? Selector1~0_combout $end
$var wire 1 @ state.E~q $end
$var wire 1 A Selector2~0_combout $end
$var wire 1 B state.F~q $end
$var wire 1 C next.G~0_combout $end
$var wire 1 D state.G~q $end
$var wire 1 E next.H~0_combout $end
$var wire 1 F state.H~q $end
$var wire 1 G Selector3~0_combout $end
$var wire 1 H state.I~q $end
$var wire 1 I WideNor0~combout $end
$var wire 1 J state.A~feeder_combout $end
$var wire 1 K state.A~q $end
$upscope $end
$upscope $end
$enddefinitions $end
#0
$dumpvars
1!
0"
0#
1,
0+
0*
0)
0(
0'
0&
0%
0$
0-
0.
1/
x0
11
12
13
04
05
06
07
18
19
0:
0;
0<
0=
0>
0?
0@
0A
0B
0C
0D
0E
0F
0G
0H
0I
1J
0K
$end
#2500
1"
15
16
1K
1:
1+
0,
1;
08
#5000
0"
05
06
#7500
1"
15
16
1<
0:
0+
1*
0;
1=
#10000
0"
05
06
#12500
1#
1"
17
15
16
1A
0=
1>
0<
0*
1)
#15000
0"
05
06
#17500
0#
1"
07
15
16
0A
1?
1B
0>
0)
1'
0?
18
#20000
0"
05
06
#22500
1"
15
16
0B
1:
1+
0'
1;
08
#25000
0"
05
06
#27500
1"
15
16
1<
0:
0+
1*
0;
1=
#30000
0"
05
06
#32500
1"
15
16
1>
0<
0*
1)
0=
1?
#35000
0"
05
06
#37500
1#
1"
17
15
16
1A
0?
1@
0>
0)
1(
1I
1-
#40000
0"
05
06
#42500
1"
15
16
1B
0@
0(
1'
0I
1C
0A
0-
#45000
0"
05
06
#47500
1"
15
16
1D
0B
0'
1&
0C
1E
#50000
0"
05
06
#52500
1"
15
16
1F
0D
0&
1%
0E
1G
#55000
0"
05
06
#57500
1"
15
16
1H
0F
0%
1$
1I
1-
#60000
0"
05
06
#62500
0#
1"
07
15
16
0G
18
#65000
0"
05
06
#67500
1"
15
16
0H
1:
1+
0$
1;
08
0I
0-
#70000
0"
05
06
#72500
1#
1"
17
15
16
1A
0;
1<
0:
0+
1*
#75000
0!
0"
09
05
06
0K
0<
0*
1,
#77500
1!
1"
19
15
16
1K
1B
1'
0,
1C
0A
#80000
0"
05
06
#82500
1"
15
16
1D
0B
0'
1&
0C
1E
