LAB 4/Zadanie 4/binary_5_bits_to_bcd_converter/simulation/qsim/binary_5_bits_to_bcd_converter.msim.vcd
$comment
	File created using the following command:
		vcd file binary_5_bits_to_bcd_converter.msim.vcd -direction
$end
$date
	Mon Mar 18 21:47:13 2024
$end
$version
	ModelSim Version 10.5b
$end
$timescale
	1ps
$end

$scope module binary_5_bits_to_bcd_converter_vlg_vec_tst $end
$var reg 5 ! binary_val [4:0] $end
$var wire 1 " bcd_val_0 [3] $end
$var wire 1 # bcd_val_0 [2] $end
$var wire 1 $ bcd_val_0 [1] $end
$var wire 1 % bcd_val_0 [0] $end
$var wire 1 & bcd_val_1 [3] $end
$var wire 1 ' bcd_val_1 [2] $end
$var wire 1 ( bcd_val_1 [1] $end
$var wire 1 ) bcd_val_1 [0] $end

$scope module i1 $end
$var wire 1 * gnd $end
$var wire 1 + vcc $end
$var wire 1 , unknown $end
$var tri1 1 - devclrn $end
$var tri1 1 . devpor $end
$var tri1 1 / devoe $end
$var wire 1 0 ~QUARTUS_CREATED_GND~I_combout $end
$var wire 1 1 binary_val[0]~input_o $end
$var wire 1 2 binary_val[4]~input_o $end
$var wire 1 3 binary_val[1]~input_o $end
$var wire 1 4 binary_val[2]~input_o $end
$var wire 1 5 binary_val[3]~input_o $end
$var wire 1 6 mux0|mux2|m~0_combout $end
$var wire 1 7 mux0|mux3|m~0_combout $end
$var wire 1 8 mux0|mux4|m~0_combout $end
$var wire 1 9 comp0|LessThan0~0_combout $end
$upscope $end
$upscope $end
$enddefinitions $end
#0
$dumpvars
b0 !
0%
0$
0#
0"
0)
0(
0'
0&
0*
1+
x,
1-
1.
1/
00
01
02
03
04
05
06
07
08
09
$end
#10000
b1 !
11
1%
#20000
b11 !
b10 !
13
01
0%
16
1$
#30000
b11 !
11
1%
#40000
b111 !
b101 !
b100 !
03
14
01
0%
17
06
0$
1#
#50000
b101 !
11
1%
#60000
b111 !
b110 !
13
01
0%
16
1$
#70000
b111 !
11
1%
#80000
b1111 !
b1011 !
b1001 !
b1000 !
03
04
15
01
0%
18
07
06
0$
0#
1"
#90000
b1001 !
11
1%
#100000
b1011 !
b1010 !
13
01
0%
19
08
0"
1)
#110000
b1011 !
11
1%
#120000
b1111 !
b1101 !
b1100 !
03
14
01
0%
16
1$
#130000
b1101 !
11
1%
#140000
b1111 !
b1110 !
13
01
0%
17
06
0$
1#
#150000
b1111 !
11
1%
#160000
b11111 !
b10111 !
b10011 !
b10001 !
b10000 !
03
04
05
12
01
0%
16
1$
#170000
b10001 !
11
1%
#180000
b10011 !
b10010 !
13
01
0%
18
07
06
0$
0#
1"
#190000
b10011 !
11
1%
