LAB 4/Zadanie 4_1_1/Zadanie 4_1_input_error_check/simulation/qsim/input_error_check.msim.vcd
$comment
	File created using the following command:
		vcd file input_error_check.msim.vcd -direction
$end
$date
	Thu Mar 21 20:16:45 2024
$end
$version
	ModelSim Version 10.5b
$end
$timescale
	1ps
$end

$scope module input_error_check_vlg_vec_tst $end
$var reg 4 ! x [3:0] $end
$var reg 4 " y [3:0] $end
$var wire 1 # error $end

$scope module i1 $end
$var wire 1 $ gnd $end
$var wire 1 % vcc $end
$var wire 1 & unknown $end
$var tri1 1 ' devclrn $end
$var tri1 1 ( devpor $end
$var tri1 1 ) devoe $end
$var wire 1 * x[0]~input_o $end
$var wire 1 + y[0]~input_o $end
$var wire 1 , ~QUARTUS_CREATED_GND~I_combout $end
$var wire 1 - x[1]~input_o $end
$var wire 1 . y[2]~input_o $end
$var wire 1 / y[3]~input_o $end
$var wire 1 0 x[2]~input_o $end
$var wire 1 1 x[3]~input_o $end
$var wire 1 2 y[1]~input_o $end
$var wire 1 3 error~0_combout $end
$upscope $end
$upscope $end
$enddefinitions $end
#0
$dumpvars
b1111 !
b0 "
1#
0$
1%
x&
1'
1(
1)
1*
0+
0,
1-
0.
0/
10
11
02
13
$end
#10000
b1110 !
b1 "
1+
0*
#20000
b1100 !
b11 "
b1101 !
b10 "
0+
12
1*
0-
#30000
b1100 !
b11 "
1+
0*
#40000
b1000 !
b111 "
b1010 !
b101 "
b1011 !
b100 "
0+
02
1.
1*
1-
00
#50000
b1010 !
b101 "
1+
0*
#60000
b1000 !
b111 "
b1001 !
b110 "
0+
12
1*
0-
03
0#
#70000
b1000 !
b111 "
1+
0*
#80000
b0 !
b1111 "
b100 !
b1011 "
b110 !
b1001 "
b111 !
b1000 "
0+
02
0.
1/
1*
1-
10
01
#90000
b110 !
b1001 "
1+
0*
#100000
b100 !
b1011 "
b101 !
b1010 "
0+
12
1*
0-
13
1#
#110000
b100 !
b1011 "
1+
0*
#120000
b0 !
b1111 "
b10 !
b1101 "
b11 !
b1100 "
0+
02
1.
1*
1-
00
#130000
b10 !
b1101 "
1+
0*
#140000
b0 !
b1111 "
b1 !
b1110 "
0+
12
1*
0-
#150000
b0 !
b1111 "
1+
0*
