LAB 5/Zadanie 2/latch_D/simulation/qsim/latch_D.msim.vcd
$comment
	File created using the following command:
		vcd file latch_D.msim.vcd -direction
$end
$date
	Sat Mar 30 18:59:44 2024
$end
$version
	ModelSim Version 10.5b
$end
$timescale
	1ps
$end

$scope module latch_D_vlg_vec_tst $end
$var reg 1 ! D $end
$var reg 1 " clk $end
$var wire 1 # Q $end

$scope module i1 $end
$var wire 1 $ gnd $end
$var wire 1 % vcc $end
$var wire 1 & unknown $end
$var tri1 1 ' devclrn $end
$var tri1 1 ( devpor $end
$var tri1 1 ) devoe $end
$var wire 1 * ~QUARTUS_CREATED_GND~I_combout $end
$var wire 1 + clk~input_o $end
$var wire 1 , D~input_o $end
$var wire 1 - S~combout $end
$var wire 1 . S_g~combout $end
$var wire 1 / R~combout $end
$var wire 1 0 R_g~combout $end
$var wire 1 1 Qb~combout $end
$var wire 1 2 Qa~combout $end
$upscope $end
$upscope $end
$enddefinitions $end
#0
$dumpvars
0!
1"
0#
0$
1%
x&
1'
1(
1)
0*
1+
0,
0-
1.
1/
00
11
02
$end
#5000
1!
1,
0/
1-
0.
10
12
1#
01
#10000
0!
0,
1/
0-
1.
00
11
02
0#
#15000
1!
1,
0/
1-
0.
10
12
1#
01
#20000
0!
0,
1/
0-
1.
00
11
02
0#
#25000
0"
1!
0+
1,
0/
1-
10
#30000
0!
0,
1/
0-
#35000
1!
1,
0/
1-
#40000
1"
1+
0.
12
1#
01
#45000
0!
0"
0,
0+
1.
1/
0-
#50000
1!
1,
0/
1-
#55000
0!
0,
1/
0-
